module github.com/xXChampionsXx/Harmony

go 1.17

// +heroku goVersion go1.17

require (
	github.com/alecthomas/template v0.0.0-20190718012654-fb15b899a751
	github.com/aws/aws-sdk-go v1.40.46
	github.com/bwmarrin/snowflake v0.3.0
	github.com/disintegration/imaging v1.6.2
	github.com/gin-contrib/sessions v0.0.3
	github.com/gin-gonic/contrib v0.0.0-20201101042839-6a891bf89f19
	github.com/gin-gonic/gin v1.7.4
	github.com/go-openapi/spec v0.20.3 // indirect
	github.com/go-openapi/swag v0.19.15 // indirect
	github.com/go-ozzo/ozzo-validation/v4 v4.3.0
	github.com/go-redis/redis/v8 v8.11.3
	github.com/golang/protobuf v1.5.2 // indirect
	github.com/gorilla/websocket v1.4.2
	github.com/joho/godotenv v1.3.0
	github.com/json-iterator/go v1.1.12 // indirect
	github.com/leodido/go-urn v1.2.1 // indirect
	github.com/lib/pq v1.10.3
	github.com/mailru/easyjson v0.7.7 // indirect
	github.com/matoous/go-nanoid v1.5.0
	github.com/matoous/go-nanoid/v2 v2.0.0
	github.com/rs/cors v1.8.0
	github.com/stretchr/testify v1.7.0
	github.com/swaggo/files v0.0.0-20210815190702-a29dd2bc99b2
	github.com/swaggo/gin-swagger v1.3.1
	github.com/swaggo/swag v1.7.1
	github.com/ulule/limiter/v3 v3.8.0
	golang.org/x/crypto v0.0.0-20210817164053-32db794688a5
	golang.org/x/net v0.0.0-20220127200216-cd36cc0744dd // indirect
	golang.org/x/sys v0.0.0-20220209214540-3681064d5158 // indirect
	golang.org/x/tools v0.1.5 // indirect
	gorm.io/driver/postgres v1.1.1
	gorm.io/gorm v1.21.15
)

require (
	golang.org/x/oauth2 v0.0.0-20220223155221-ee480838109b
	google.golang.org/api v0.70.0
)

require (
	cloud.google.com/go/compute v1.3.0 // indirect
	github.com/KyleBanks/depth v1.2.1 // indirect
	github.com/PuerkitoBio/purell v1.1.1 // indirect
	github.com/PuerkitoBio/urlesc v0.0.0-20170810143723-de5bf2ad4578 // indirect
	github.com/asaskevich/govalidator v0.0.0-20200108200545-475eaeb16496 // indirect
	github.com/boj/redistore v0.0.0-20180917114910-cd5dcc76aeff // indirect
	github.com/cespare/xxhash/v2 v2.1.2 // indirect
	github.com/davecgh/go-spew v1.1.1 // indirect
	github.com/dgryski/go-rendezvous v0.0.0-20200823014737-9f7001d12a5f // indirect
	github.com/gin-contrib/sse v0.1.0 // indirect
	github.com/go-openapi/jsonpointer v0.19.5 // indirect
	github.com/go-openapi/jsonreference v0.19.6 // indirect
	github.com/go-playground/locales v0.14.0 // indirect
	github.com/go-playground/universal-translator v0.18.0 // indirect
	github.com/go-playground/validator/v10 v10.9.0 // indirect
	github.com/golang/groupcache v0.0.0-20200121045136-8c9f03a8e57e // indirect
	github.com/gomodule/redigo v2.0.0+incompatible // indirect
	github.com/googleapis/gax-go/v2 v2.1.1 // indirect
	github.com/gorilla/context v1.1.1 // indirect
	github.com/gorilla/securecookie v1.1.1 // indirect
	github.com/gorilla/sessions v1.2.1 // indirect
	github.com/jackc/chunkreader/v2 v2.0.1 // indirect
	github.com/jackc/pgconn v1.10.0 // indirect
	github.com/jackc/pgio v1.0.0 // indirect
	github.com/jackc/pgpassfile v1.0.0 // indirect
	github.com/jackc/pgproto3/v2 v2.1.1 // indirect
	github.com/jackc/pgservicefile v0.0.0-20200714003250-2b9c44734f2b // indirect
	github.com/jackc/pgtype v1.8.1 // indirect
	github.com/jackc/pgx/v4 v4.13.0 // indirect
	github.com/jinzhu/inflection v1.0.0 // indirect
	github.com/jinzhu/now v1.1.2 // indirect
	github.com/jmespath/go-jmespath v0.4.0 // indirect
	github.com/josharian/intern v1.0.0 // indirect
	github.com/mattn/go-isatty v0.0.14 // indirect
	github.com/modern-go/concurrent v0.0.0-20180306012644-bacd9c7ef1dd // indirect
	github.com/modern-go/reflect2 v1.0.2 // indirect
	github.com/pkg/errors v0.9.1 // indirect
	github.com/pmezard/go-difflib v1.0.0 // indirect
	github.com/stretchr/objx v0.2.0 // indirect
	github.com/ugorji/go/codec v1.2.6 // indirect
	go.opencensus.io v0.23.0 // indirect
	golang.org/x/image v0.0.0-20210628002857-a66eb6448b8d // indirect
	golang.org/x/text v0.3.7 // indirect
	google.golang.org/appengine v1.6.7 // indirect
	google.golang.org/genproto v0.0.0-20220218161850-94dd64e39d7c // indirect
	google.golang.org/grpc v1.44.0 // indirect
	google.golang.org/protobuf v1.27.1 // indirect
	gopkg.in/yaml.v2 v2.4.0 // indirect
	gopkg.in/yaml.v3 v3.0.0-20210107192922-496545a6307b // indirect
)
